%YAML 1.1
%TAG !u! tag:unity3d.com,2011:
--- !u!1 &2022105749
GameObject:
  m_ObjectHideFlags: 0
  m_CorrespondingSourceObject: {fileID: 0}
  m_PrefabInstance: {fileID: 0}
  m_PrefabAsset: {fileID: 0}
  serializedVersion: 6
  m_Component:
  - component: {fileID: 2022105750}
  - component: {fileID: 2022105753}
  - component: {fileID: 2022105752}
  - component: {fileID: 2136203566298373909}
  m_Layer: 3
  m_Name: Selectable
  m_TagString: Untagged
  m_Icon: {fileID: 0}
  m_NavMeshLayer: 0
  m_StaticEditorFlags: 0
  m_IsActive: 1
--- !u!4 &2022105750
Transform:
  m_ObjectHideFlags: 0
  m_CorrespondingSourceObject: {fileID: 0}
  m_PrefabInstance: {fileID: 0}
  m_PrefabAsset: {fileID: 0}
  m_GameObject: {fileID: 2022105749}
  m_LocalRotation: {x: 0, y: 0, z: 0, w: 1}
  m_LocalPosition: {x: 0, y: -0.95, z: 0}
  m_LocalScale: {x: 0, y: 0.1, z: 0}
  m_Children: []
  m_Father: {fileID: 4945532874983642766}
  m_RootOrder: 2
  m_LocalEulerAnglesHint: {x: 0, y: 0, z: 0}
--- !u!33 &2022105753
MeshFilter:
  m_ObjectHideFlags: 0
  m_CorrespondingSourceObject: {fileID: 0}
  m_PrefabInstance: {fileID: 0}
  m_PrefabAsset: {fileID: 0}
  m_GameObject: {fileID: 2022105749}
  m_Mesh: {fileID: 10207, guid: 0000000000000000e000000000000000, type: 0}
--- !u!23 &2022105752
MeshRenderer:
  m_ObjectHideFlags: 0
  m_CorrespondingSourceObject: {fileID: 0}
  m_PrefabInstance: {fileID: 0}
  m_PrefabAsset: {fileID: 0}
  m_GameObject: {fileID: 2022105749}
  m_Enabled: 1
  m_CastShadows: 1
  m_ReceiveShadows: 1
  m_DynamicOccludee: 1
  m_MotionVectors: 1
  m_LightProbeUsage: 1
  m_ReflectionProbeUsage: 1
  m_RayTracingMode: 2
  m_RayTraceProcedural: 0
  m_RenderingLayerMask: 1
  m_RendererPriority: 0
  m_Materials:
  - {fileID: 2100000, guid: 6a0be8826b576d243b769c0fc5047d62, type: 2}
  m_StaticBatchInfo:
    firstSubMesh: 0
    subMeshCount: 0
  m_StaticBatchRoot: {fileID: 0}
  m_ProbeAnchor: {fileID: 0}
  m_LightProbeVolumeOverride: {fileID: 0}
  m_ScaleInLightmap: 1
  m_ReceiveGI: 1
  m_PreserveUVs: 0
  m_IgnoreNormalsForChartDetection: 0
  m_ImportantGI: 0
  m_StitchLightmapSeams: 1
  m_SelectedEditorRenderState: 3
  m_MinimumChartSize: 4
  m_AutoUVMaxDistance: 0.5
  m_AutoUVMaxAngle: 89
  m_LightmapParameters: {fileID: 0}
  m_SortingLayerID: 0
  m_SortingLayer: 0
  m_SortingOrder: 0
  m_AdditionalVertexStreams: {fileID: 0}
--- !u!64 &2136203566298373909
MeshCollider:
  m_ObjectHideFlags: 0
  m_CorrespondingSourceObject: {fileID: 0}
  m_PrefabInstance: {fileID: 0}
  m_PrefabAsset: {fileID: 0}
  m_GameObject: {fileID: 2022105749}
  m_Material: {fileID: 0}
  m_IsTrigger: 0
  m_Enabled: 1
  serializedVersion: 4
  m_Convex: 1
  m_CookingOptions: 30
  m_Mesh: {fileID: 10207, guid: 0000000000000000e000000000000000, type: 0}
--- !u!1 &968718141783620447
GameObject:
  m_ObjectHideFlags: 0
  m_CorrespondingSourceObject: {fileID: 0}
  m_PrefabInstance: {fileID: 0}
  m_PrefabAsset: {fileID: 0}
  serializedVersion: 6
  m_Component:
  - component: {fileID: 8973670121334451537}
  - component: {fileID: 8403861353231453224}
  - component: {fileID: 3440624402345290484}
  m_Layer: 0
  m_Name: Baston
  m_TagString: Untagged
  m_Icon: {fileID: 0}
  m_NavMeshLayer: 0
  m_StaticEditorFlags: 0
  m_IsActive: 1
--- !u!4 &8973670121334451537
Transform:
  m_ObjectHideFlags: 0
  m_CorrespondingSourceObject: {fileID: 0}
  m_PrefabInstance: {fileID: 0}
  m_PrefabAsset: {fileID: 0}
  m_GameObject: {fileID: 968718141783620447}
  m_LocalRotation: {x: -0.7071068, y: 0, z: -0, w: 0.7071067}
  m_LocalPosition: {x: 0.003744546, y: 0.84580404, z: -0.0034399037}
  m_LocalScale: {x: 13.370061, y: 13.370061, z: 13.370061}
  m_Children: []
  m_Father: {fileID: 4839318526420919396}
  m_RootOrder: 0
  m_LocalEulerAnglesHint: {x: 0, y: 0, z: 0}
--- !u!33 &8403861353231453224
MeshFilter:
  m_ObjectHideFlags: 0
  m_CorrespondingSourceObject: {fileID: 0}
  m_PrefabInstance: {fileID: 0}
  m_PrefabAsset: {fileID: 0}
  m_GameObject: {fileID: 968718141783620447}
  m_Mesh: {fileID: -4606265307860361467, guid: 25eb6c8b2f1dba34f8d53c9d77bda4d9, type: 3}
--- !u!23 &3440624402345290484
MeshRenderer:
  m_ObjectHideFlags: 0
  m_CorrespondingSourceObject: {fileID: 0}
  m_PrefabInstance: {fileID: 0}
  m_PrefabAsset: {fileID: 0}
  m_GameObject: {fileID: 968718141783620447}
  m_Enabled: 1
  m_CastShadows: 1
  m_ReceiveShadows: 1
  m_DynamicOccludee: 1
  m_MotionVectors: 1
  m_LightProbeUsage: 1
  m_ReflectionProbeUsage: 1
  m_RayTracingMode: 2
  m_RayTraceProcedural: 0
  m_RenderingLayerMask: 1
  m_RendererPriority: 0
  m_Materials:
  - {fileID: 2100000, guid: eb29613cf27661b4e946897a613480a6, type: 2}
  m_StaticBatchInfo:
    firstSubMesh: 0
    subMeshCount: 0
  m_StaticBatchRoot: {fileID: 0}
  m_ProbeAnchor: {fileID: 0}
  m_LightProbeVolumeOverride: {fileID: 0}
  m_ScaleInLightmap: 1
  m_ReceiveGI: 1
  m_PreserveUVs: 0
  m_IgnoreNormalsForChartDetection: 0
  m_ImportantGI: 0
  m_StitchLightmapSeams: 1
  m_SelectedEditorRenderState: 3
  m_MinimumChartSize: 4
  m_AutoUVMaxDistance: 0.5
  m_AutoUVMaxAngle: 89
  m_LightmapParameters: {fileID: 0}
  m_SortingLayerID: 0
  m_SortingLayer: 0
  m_SortingOrder: 0
  m_AdditionalVertexStreams: {fileID: 0}
--- !u!1 &2557368721567509303
GameObject:
  m_ObjectHideFlags: 0
  m_CorrespondingSourceObject: {fileID: 0}
  m_PrefabInstance: {fileID: 0}
  m_PrefabAsset: {fileID: 0}
  serializedVersion: 6
  m_Component:
  - component: {fileID: 2488808550493624176}
  - component: {fileID: 8013105403378319976}
  - component: {fileID: 288988102375848329}
  - component: {fileID: 4945532873177429805}
  m_Layer: 0
  m_Name: BastonGema
  m_TagString: Untagged
  m_Icon: {fileID: 0}
  m_NavMeshLayer: 0
  m_StaticEditorFlags: 0
  m_IsActive: 1
--- !u!4 &2488808550493624176
Transform:
  m_ObjectHideFlags: 0
  m_CorrespondingSourceObject: {fileID: 0}
  m_PrefabInstance: {fileID: 0}
  m_PrefabAsset: {fileID: 0}
  m_GameObject: {fileID: 2557368721567509303}
  m_LocalRotation: {x: -0.6532815, y: 0.27059802, z: 0.27059808, w: 0.65328145}
  m_LocalPosition: {x: -0.23649284, y: 2.137318, z: -0.003439905}
  m_LocalScale: {x: 13.370062, y: 13.370062, z: 6.6660724}
  m_Children:
  - {fileID: 5575603142241287249}
  m_Father: {fileID: 4839318526420919396}
  m_RootOrder: 1
  m_LocalEulerAnglesHint: {x: 0, y: 0, z: 0}
--- !u!33 &8013105403378319976
MeshFilter:
  m_ObjectHideFlags: 0
  m_CorrespondingSourceObject: {fileID: 0}
  m_PrefabInstance: {fileID: 0}
  m_PrefabAsset: {fileID: 0}
  m_GameObject: {fileID: 2557368721567509303}
  m_Mesh: {fileID: -187458235197003213, guid: 25eb6c8b2f1dba34f8d53c9d77bda4d9, type: 3}
--- !u!23 &288988102375848329
MeshRenderer:
  m_ObjectHideFlags: 0
  m_CorrespondingSourceObject: {fileID: 0}
  m_PrefabInstance: {fileID: 0}
  m_PrefabAsset: {fileID: 0}
  m_GameObject: {fileID: 2557368721567509303}
  m_Enabled: 1
  m_CastShadows: 0
  m_ReceiveShadows: 1
  m_DynamicOccludee: 1
  m_MotionVectors: 1
  m_LightProbeUsage: 1
  m_ReflectionProbeUsage: 1
  m_RayTracingMode: 2
  m_RayTraceProcedural: 0
  m_RenderingLayerMask: 1
  m_RendererPriority: 0
  m_Materials:
  - {fileID: 2100000, guid: dcf4495fea3e7a34daa802b9529ce346, type: 2}
  m_StaticBatchInfo:
    firstSubMesh: 0
    subMeshCount: 0
  m_StaticBatchRoot: {fileID: 0}
  m_ProbeAnchor: {fileID: 0}
  m_LightProbeVolumeOverride: {fileID: 0}
  m_ScaleInLightmap: 1
  m_ReceiveGI: 1
  m_PreserveUVs: 0
  m_IgnoreNormalsForChartDetection: 0
  m_ImportantGI: 0
  m_StitchLightmapSeams: 1
  m_SelectedEditorRenderState: 3
  m_MinimumChartSize: 4
  m_AutoUVMaxDistance: 0.5
  m_AutoUVMaxAngle: 89
  m_LightmapParameters: {fileID: 0}
  m_SortingLayerID: 0
  m_SortingLayer: 0
  m_SortingOrder: 0
  m_AdditionalVertexStreams: {fileID: 0}
--- !u!114 &4945532873177429805
MonoBehaviour:
  m_ObjectHideFlags: 0
  m_CorrespondingSourceObject: {fileID: 0}
  m_PrefabInstance: {fileID: 0}
  m_PrefabAsset: {fileID: 0}
  m_GameObject: {fileID: 2557368721567509303}
  m_Enabled: 1
  m_EditorHideFlags: 0
  m_Script: {fileID: 11500000, guid: 67ade57eb9308aa43a94aa659f207096, type: 3}
  m_Name: 
  m_EditorClassIdentifier: 
  spinSpeed: {x: 0, y: 0, z: 0.5}
  growSpeed: 1
  offsetSize: 0.5
--- !u!1 &4945532874056730120
GameObject:
  m_ObjectHideFlags: 0
  m_CorrespondingSourceObject: {fileID: 0}
  m_PrefabInstance: {fileID: 0}
  m_PrefabAsset: {fileID: 0}
  serializedVersion: 6
  m_Component:
  - component: {fileID: 4945532874056730121}
  m_Layer: 3
  m_Name: ShootPoint
  m_TagString: Untagged
  m_Icon: {fileID: 0}
  m_NavMeshLayer: 0
  m_StaticEditorFlags: 0
  m_IsActive: 1
--- !u!4 &4945532874056730121
Transform:
  m_ObjectHideFlags: 0
  m_CorrespondingSourceObject: {fileID: 0}
  m_PrefabInstance: {fileID: 0}
  m_PrefabAsset: {fileID: 0}
  m_GameObject: {fileID: 4945532874056730120}
  m_LocalRotation: {x: 0, y: 0, z: 0, w: 1}
  m_LocalPosition: {x: 0, y: 0.176, z: 0.66}
  m_LocalScale: {x: 1, y: 1, z: 1}
  m_Children: []
  m_Father: {fileID: 4945532874983642766}
  m_RootOrder: 1
  m_LocalEulerAnglesHint: {x: 0, y: 0, z: 0}
--- !u!1 &4945532874983642761
GameObject:
  m_ObjectHideFlags: 0
  m_CorrespondingSourceObject: {fileID: 0}
  m_PrefabInstance: {fileID: 0}
  m_PrefabAsset: {fileID: 0}
  serializedVersion: 6
  m_Component:
  - component: {fileID: 4945532874983642766}
  - component: {fileID: 4945532874983642767}
  - component: {fileID: 4945532874983642771}
  - component: {fileID: 6933373762454914870}
  - component: {fileID: 5575603141752258724}
  - component: {fileID: 7836089098507309727}
  - component: {fileID: 914350428678956343}
  - component: {fileID: 7537935556615111993}
  - component: {fileID: 3173445439370158998}
  m_Layer: 3
  m_Name: PlayerMultiplayer
  m_TagString: Player
  m_Icon: {fileID: 0}
  m_NavMeshLayer: 0
  m_StaticEditorFlags: 0
  m_IsActive: 1
--- !u!4 &4945532874983642766
Transform:
  m_ObjectHideFlags: 0
  m_CorrespondingSourceObject: {fileID: 0}
  m_PrefabInstance: {fileID: 0}
  m_PrefabAsset: {fileID: 0}
  m_GameObject: {fileID: 4945532874983642761}
  m_LocalRotation: {x: 0, y: 0, z: 0, w: 1}
  m_LocalPosition: {x: 0, y: 0, z: 0}
  m_LocalScale: {x: 1, y: 1, z: 1}
  m_Children:
  - {fileID: 4839318526352722793}
  - {fileID: 4945532874056730121}
  - {fileID: 2022105750}
  m_Father: {fileID: 0}
  m_RootOrder: 0
  m_LocalEulerAnglesHint: {x: 0, y: 0, z: 0}
--- !u!136 &4945532874983642767
CapsuleCollider:
  m_ObjectHideFlags: 0
  m_CorrespondingSourceObject: {fileID: 0}
  m_PrefabInstance: {fileID: 0}
  m_PrefabAsset: {fileID: 0}
  m_GameObject: {fileID: 4945532874983642761}
  m_Material: {fileID: 0}
  m_IsTrigger: 0
  m_Enabled: 1
  m_Radius: 0.71581805
  m_Height: 2.5231483
  m_Direction: 1
  m_Center: {x: 0, y: 0, z: 0}
--- !u!195 &4945532874983642771
NavMeshAgent:
  m_ObjectHideFlags: 0
  m_CorrespondingSourceObject: {fileID: 0}
  m_PrefabInstance: {fileID: 0}
  m_PrefabAsset: {fileID: 0}
  m_GameObject: {fileID: 4945532874983642761}
  m_Enabled: 1
  m_AgentTypeID: 0
  m_Radius: 0.5
  m_Speed: 10
  m_Acceleration: 99
  avoidancePriority: 50
  m_AngularSpeed: 99999
  m_StoppingDistance: 1
  m_AutoTraverseOffMeshLink: 1
  m_AutoBraking: 1
  m_AutoRepath: 1
  m_Height: 2
  m_BaseOffset: 1
  m_WalkableMask: 4294967295
  m_ObstacleAvoidanceType: 0
--- !u!114 &6933373762454914870
MonoBehaviour:
  m_ObjectHideFlags: 0
  m_CorrespondingSourceObject: {fileID: 0}
  m_PrefabInstance: {fileID: 0}
  m_PrefabAsset: {fileID: 0}
  m_GameObject: {fileID: 4945532874983642761}
  m_Enabled: 1
  m_EditorHideFlags: 0
  m_Script: {fileID: 11500000, guid: 9b91ecbcc199f4492b9a91e820070131, type: 3}
  m_Name: 
  m_EditorClassIdentifier: 
  sceneId: 0
  serverOnly: 0
  visible: 0
  m_AssetId: 
  hasSpawned: 0
--- !u!114 &5575603141752258724
MonoBehaviour:
  m_ObjectHideFlags: 0
  m_CorrespondingSourceObject: {fileID: 0}
  m_PrefabInstance: {fileID: 0}
  m_PrefabAsset: {fileID: 0}
  m_GameObject: {fileID: 4945532874983642761}
  m_Enabled: 1
  m_EditorHideFlags: 0
  m_Script: {fileID: 11500000, guid: 2f74aedd71d9a4f55b3ce499326d45fb, type: 3}
  m_Name: 
  m_EditorClassIdentifier: 
  syncMode: 0
  syncInterval: 0.1
  clientAuthority: 1
  localPositionSensitivity: 0.01
  localRotationSensitivity: 0.01
  localScaleSensitivity: 0.01
  compressRotation: 0
  interpolateScale: 1
  syncScale: 1
--- !u!114 &7836089098507309727
MonoBehaviour:
  m_ObjectHideFlags: 0
  m_CorrespondingSourceObject: {fileID: 0}
  m_PrefabInstance: {fileID: 0}
  m_PrefabAsset: {fileID: 0}
  m_GameObject: {fileID: 4945532874983642761}
  m_Enabled: 1
  m_EditorHideFlags: 0
  m_Script: {fileID: 11500000, guid: 734b48bea0b204338958ee3d885e11f0, type: 3}
  m_Name: 
  m_EditorClassIdentifier: 
  syncMode: 0
  syncInterval: 0.1
  clientAuthority: 1
  localPositionSensitivity: 0.01
  localRotationSensitivity: 0.01
  localScaleSensitivity: 0.01
  compressRotation: 0
  interpolateScale: 1
  syncScale: 1
  target: {fileID: 4839318526352722793}
--- !u!114 &914350428678956343
MonoBehaviour:
  m_ObjectHideFlags: 0
  m_CorrespondingSourceObject: {fileID: 0}
  m_PrefabInstance: {fileID: 0}
  m_PrefabAsset: {fileID: 0}
  m_GameObject: {fileID: 4945532874983642761}
  m_Enabled: 1
  m_EditorHideFlags: 0
  m_Script: {fileID: 11500000, guid: c75ea69746696824c86a05f026ff10da, type: 3}
  m_Name: 
  m_EditorClassIdentifier: 
  syncMode: 0
  syncInterval: 0.1
  myCamera: {fileID: 0}
  imBlue: 1
  DMGBase: 1.5
  speed: 1.5
  penguinInputs: {fileID: 0}
  penguinResources: {fileID: 0}
  myNexus: {fileID: 0}
  agent: {fileID: 0}
  allWithoutClickableMask:
    serializedVersion: 2
    m_Bits: 243
  terrainMask:
    serializedVersion: 2
    m_Bits: 0
  distanceOfInteractions: 3
  clickPointerToMove: {fileID: 0}
  staffLight: {fileID: 5575603142241287248}
  controles: {fileID: 11400000, guid: ca3fc39361258d64abb6dee4721c4648, type: 2}
--- !u!114 &7537935556615111993
MonoBehaviour:
  m_ObjectHideFlags: 0
  m_CorrespondingSourceObject: {fileID: 0}
  m_PrefabInstance: {fileID: 0}
  m_PrefabAsset: {fileID: 0}
  m_GameObject: {fileID: 4945532874983642761}
  m_Enabled: 1
  m_EditorHideFlags: 0
  m_Script: {fileID: 11500000, guid: 5255999804778c942a5c3cd75e34ff68, type: 3}
  m_Name: 
  m_EditorClassIdentifier: 
  syncMode: 0
  syncInterval: 0.1
  casting: 0
  canMove: 1
  canCastAgainTime: 0.8
  objectWhereSkillsAreInstanced: {fileID: 4768611268868552653, guid: d9805fbfc8c43d34db549c9343ac1c6a, type: 3}
--- !u!114 &3173445439370158998
MonoBehaviour:
  m_ObjectHideFlags: 0
  m_CorrespondingSourceObject: {fileID: 0}
  m_PrefabInstance: {fileID: 0}
  m_PrefabAsset: {fileID: 0}
  m_GameObject: {fileID: 4945532874983642761}
  m_Enabled: 1
  m_EditorHideFlags: 0
  m_Script: {fileID: 11500000, guid: 51f25b2307c18bb4fb7800d6f7271100, type: 3}
  m_Name: 
  m_EditorClassIdentifier: 
  syncMode: 0
  syncInterval: 0.1
  maxHp: 100
  actuallyBuffedOrDebuffed: 0
  manager: {fileID: 0}
  maxMana: 20
  money: 0
  hpRegen: 10
  manaRegen: 1
  timeToRegen: 2
  canRegenHP: 0
  canRegenMana: 0
  extraRegenInsideNexusArea: 3
  selectableArea: {fileID: 0}
--- !u!1 &5216125097172631262
GameObject:
  m_ObjectHideFlags: 0
  m_CorrespondingSourceObject: {fileID: 0}
  m_PrefabInstance: {fileID: 0}
  m_PrefabAsset: {fileID: 0}
  serializedVersion: 6
  m_Component:
  - component: {fileID: 4839318526420919396}
  m_Layer: 0
  m_Name: Baston
  m_TagString: Untagged
  m_Icon: {fileID: 0}
  m_NavMeshLayer: 0
  m_StaticEditorFlags: 0
  m_IsActive: 1
--- !u!4 &4839318526420919396
Transform:
  m_ObjectHideFlags: 0
  m_CorrespondingSourceObject: {fileID: 0}
  m_PrefabInstance: {fileID: 0}
  m_PrefabAsset: {fileID: 0}
  m_GameObject: {fileID: 5216125097172631262}
  m_LocalRotation: {x: 0.7069013, y: -0.000052690506, z: 0.70731217, w: 0.000052303076}
  m_LocalPosition: {x: 0.502, y: 1.051, z: 0.716}
  m_LocalScale: {x: 1, y: 1, z: 1}
  m_Children:
  - {fileID: 8973670121334451537}
  - {fileID: 2488808550493624176}
  m_Father: {fileID: 4839318526352722793}
  m_RootOrder: 0
  m_LocalEulerAnglesHint: {x: 179.991, y: -90.03299, z: 0}
--- !u!1 &5216125097366573523
GameObject:
  m_ObjectHideFlags: 0
  m_CorrespondingSourceObject: {fileID: 0}
  m_PrefabInstance: {fileID: 0}
  m_PrefabAsset: {fileID: 0}
  serializedVersion: 6
  m_Component:
  - component: {fileID: 4839318526352722793}
  - component: {fileID: 8396799988964230348}
  - component: {fileID: 6008816013312225286}
  - component: {fileID: 4945532873986934205}
  m_Layer: 0
  m_Name: PlayerPenguinModel
  m_TagString: Player
  m_Icon: {fileID: 0}
  m_NavMeshLayer: 0
  m_StaticEditorFlags: 0
  m_IsActive: 1
--- !u!4 &4839318526352722793
Transform:
  m_ObjectHideFlags: 0
  m_CorrespondingSourceObject: {fileID: 0}
  m_PrefabInstance: {fileID: 0}
  m_PrefabAsset: {fileID: 0}
  m_GameObject: {fileID: 5216125097366573523}
  m_LocalRotation: {x: -0.7071068, y: -0, z: -0, w: 0.7071067}
  m_LocalPosition: {x: 0, y: -0.9, z: 0}
  m_LocalScale: {x: 1, y: 1, z: 1}
  m_Children:
  - {fileID: 4839318526420919396}
  m_Father: {fileID: 4945532874983642766}
  m_RootOrder: 0
  m_LocalEulerAnglesHint: {x: 0, y: 0, z: 0}
--- !u!33 &8396799988964230348
MeshFilter:
  m_ObjectHideFlags: 0
  m_CorrespondingSourceObject: {fileID: 0}
  m_PrefabInstance: {fileID: 0}
  m_PrefabAsset: {fileID: 0}
  m_GameObject: {fileID: 5216125097366573523}
  m_Mesh: {fileID: 8458804896830597606, guid: e6b4226c82f60704ebb867c8161fa438, type: 3}
--- !u!23 &6008816013312225286
MeshRenderer:
  m_ObjectHideFlags: 0
  m_CorrespondingSourceObject: {fileID: 0}
  m_PrefabInstance: {fileID: 0}
  m_PrefabAsset: {fileID: 0}
  m_GameObject: {fileID: 5216125097366573523}
  m_Enabled: 1
  m_CastShadows: 1
  m_ReceiveShadows: 1
  m_DynamicOccludee: 1
  m_MotionVectors: 1
  m_LightProbeUsage: 1
  m_ReflectionProbeUsage: 1
  m_RayTracingMode: 2
  m_RayTraceProcedural: 0
  m_RenderingLayerMask: 1
  m_RendererPriority: 0
  m_Materials:
  - {fileID: 2100000, guid: eb29613cf27661b4e946897a613480a6, type: 2}
  m_StaticBatchInfo:
    firstSubMesh: 0
    subMeshCount: 0
  m_StaticBatchRoot: {fileID: 0}
  m_ProbeAnchor: {fileID: 0}
  m_LightProbeVolumeOverride: {fileID: 0}
  m_ScaleInLightmap: 1
  m_ReceiveGI: 1
  m_PreserveUVs: 0
  m_IgnoreNormalsForChartDetection: 0
  m_ImportantGI: 0
  m_StitchLightmapSeams: 1
  m_SelectedEditorRenderState: 3
  m_MinimumChartSize: 4
  m_AutoUVMaxDistance: 0.5
  m_AutoUVMaxAngle: 89
  m_LightmapParameters: {fileID: 0}
  m_SortingLayerID: 0
  m_SortingLayer: 0
  m_SortingOrder: 0
  m_AdditionalVertexStreams: {fileID: 0}
--- !u!114 &4945532873986934205
MonoBehaviour:
  m_ObjectHideFlags: 0
  m_CorrespondingSourceObject: {fileID: 0}
  m_PrefabInstance: {fileID: 0}
  m_PrefabAsset: {fileID: 0}
  m_GameObject: {fileID: 5216125097366573523}
  m_Enabled: 1
  m_EditorHideFlags: 0
  m_Script: {fileID: 11500000, guid: 5fea29bb7c508c244a1f805a5fd3fc4d, type: 3}
  m_Name: 
  m_EditorClassIdentifier: 
  outlineMode: 3
  outlineColor: {r: 0.93467546, g: 1, b: 0, a: 1}
  outlineWidth: 3.16
  precomputeOutline: 1
  bakeKeys:
  - {fileID: 10208, guid: 0000000000000000e000000000000000, type: 0}
  bakeValues:
  - data:
    - {x: -0.5773504, y: -0.57734996, z: 0.57735044}
    - {x: -0.57735056, y: -0.5773502, z: -0.5773501}
    - {x: 0.57735026, y: -0.5773502, z: 0.5773503}
    - {x: 0.57735026, y: -0.5773501, z: -0.57735056}
    - {x: -0.5773504, y: 0.57735026, z: 0.5773502}
    - {x: -0.5773503, y: 0.57735026, z: -0.5773502}
    - {x: 0.5773503, y: 0.5773502, z: 0.5773503}
    - {x: 0.5773503, y: 0.5773502, z: -0.57735026}
    - {x: 0, y: -0.9999991, z: 0.0013401482}
    - {x: 0, y: 1, z: 0}
    - {x: -0.99871075, y: 0.05076177, z: 0.00003399785}
    - {x: 0, y: 0.050864775, z: -0.9987055}
    - {x: 0.99871075, y: 0.05076212, z: 0.000033990353}
    - {x: 0, y: 0.050727684, z: 0.99871254}
    - {x: 0, y: -0.7071061, z: 0.7071074}
    - {x: 0.7071055, y: -0.7071073, z: 0.0010627954}
    - {x: 0, y: -0.7071066, z: -0.70710695}
    - {x: -0.7071056, y: -0.70710725, z: 0.001062799}
    - {x: -0.7071065, y: 0.7071071, z: 0}
    - {x: 0, y: 0.7071069, z: -0.70710665}
    - {x: 0.7071071, y: 0.7071065, z: 0}
    - {x: 0, y: 0.70710665, z: 0.7071069}
    - {x: -0.7063879, y: 0.045083165, z: -0.7063878}
    - {x: -0.70639193, y: 0.04494741, z: 0.7063924}
    - {x: 0.70638824, y: 0.045083243, z: -0.70638746}
    - {x: 0.7063923, y: 0.04494747, z: 0.706392}
    - {x: -0.48054898, y: -0.6201098, z: 0.62011015}
    - {x: -0.34110007, y: -0.6646994, z: 0.6646996}
    - {x: -0.17692557, y: -0.6959512, z: 0.695952}
    - {x: 0.48054907, y: -0.6201099, z: 0.6201099}
    - {x: 0.34110025, y: -0.6646994, z: 0.66469944}
    - {x: 0.17692563, y: -0.6959513, z: 0.695952}
    - {x: 0.62011015, y: -0.62010986, z: 0.48054892}
    - {x: 0.6646997, y: -0.66469914, z: 0.34110022}
    - {x: 0.69595206, y: -0.69595104, z: 0.17692612}
    - {x: 0.62011015, y: -0.62011, z: -0.48054877}
    - {x: 0.66469973, y: -0.6646992, z: -0.34110016}
    - {x: 0.6960831, y: -0.69608504, z: -0.17588046}
    - {x: 0.4805489, y: -0.62010986, z: -0.62011015}
    - {x: 0.3411006, y: -0.66469944, z: -0.66469926}
    - {x: 0.17692582, y: -0.6959516, z: -0.69595164}
    - {x: -0.4805489, y: -0.62011015, z: -0.62010986}
    - {x: -0.34110007, y: -0.6646996, z: -0.6646993}
    - {x: -0.17692581, y: -0.6959516, z: -0.69595164}
    - {x: -0.62011, y: -0.6201099, z: -0.48054907}
    - {x: -0.6646994, y: -0.66469944, z: -0.3411004}
    - {x: -0.696083, y: -0.6960853, z: -0.17588009}
    - {x: -0.62011, y: -0.62010986, z: 0.48054913}
    - {x: -0.6646993, y: -0.6646994, z: 0.34110048}
    - {x: -0.69595194, y: -0.69595134, z: 0.17692569}
    - {x: -0.62011003, y: 0.6201099, z: 0.48054895}
    - {x: -0.66469926, y: 0.66469926, z: 0.34110078}
    - {x: -0.6959514, y: 0.6959519, z: 0.17692551}
    - {x: -0.62011003, y: 0.6201099, z: -0.48054895}
    - {x: -0.6646994, y: 0.6646992, z: -0.3411008}
    - {x: -0.6959515, y: 0.69595176, z: -0.17692553}
    - {x: -0.4805488, y: 0.6201099, z: -0.62011015}
    - {x: -0.3411007, y: 0.66469896, z: -0.6646996}
    - {x: -0.17692573, y: 0.6959515, z: -0.69595176}
    - {x: 0.48054898, y: 0.6201099, z: -0.62011003}
    - {x: 0.34110066, y: 0.6646991, z: -0.66469955}
    - {x: 0.17692544, y: 0.69595164, z: -0.69595164}
    - {x: 0.6201104, y: 0.62010974, z: -0.48054862}
    - {x: 0.6647001, y: 0.6646987, z: -0.34110042}
    - {x: 0.6959522, y: 0.6959511, z: -0.17692572}
    - {x: 0.6201104, y: 0.62010974, z: 0.48054862}
    - {x: 0.66470003, y: 0.66469866, z: 0.34110063}
    - {x: 0.6959522, y: 0.6959511, z: 0.17692572}
    - {x: 0.48054907, y: 0.6201098, z: 0.62011003}
    - {x: 0.34110048, y: 0.6646991, z: 0.6646996}
    - {x: 0.17692533, y: 0.69595146, z: 0.6959518}
    - {x: -0.48054892, y: 0.62010974, z: 0.62011015}
    - {x: -0.34110075, y: 0.6646989, z: 0.66469973}
    - {x: -0.17692564, y: 0.69595134, z: 0.6959519}
    - {x: -0.6201099, y: -0.48054916, z: -0.6201098}
    - {x: -0.66469926, y: -0.3411005, z: -0.6646995}
    - {x: -0.69595176, y: -0.17692542, z: -0.6959516}
    - {x: -0.6201098, y: 0.48054922, z: -0.62011}
    - {x: -0.664699, y: 0.34110096, z: -0.6646995}
    - {x: -0.69593453, y: 0.17705889, z: -0.6959349}
    - {x: -0.6201097, y: 0.48054928, z: 0.62011003}
    - {x: -0.66469896, y: 0.34110078, z: 0.66469955}
    - {x: -0.6959513, y: 0.17692496, z: 0.6959521}
    - {x: -0.6201097, y: -0.48054925, z: 0.62011}
    - {x: -0.6646991, y: -0.34110048, z: 0.6646997}
    - {x: -0.6959514, y: -0.1769252, z: 0.69595194}
    - {x: 0.62011003, y: -0.4805486, z: -0.6201101}
    - {x: 0.6646995, y: -0.34110063, z: -0.6646992}
    - {x: 0.6959521, y: -0.17692582, z: -0.6959511}
    - {x: 0.62011015, y: 0.48054874, z: -0.6201099}
    - {x: 0.6646997, y: 0.34110048, z: -0.664699}
    - {x: 0.6959351, y: 0.17705902, z: -0.69593424}
    - {x: 0.6201101, y: -0.4805489, z: 0.62010986}
    - {x: 0.6646996, y: -0.34110045, z: 0.6646992}
    - {x: 0.69595176, y: -0.17692557, z: 0.69595146}
    - {x: 0.6201101, y: 0.48054886, z: 0.62011}
    - {x: 0.6646997, y: 0.34110036, z: 0.6646991}
    - {x: 0.695952, y: 0.17692511, z: 0.6959514}
    - {x: 0, y: -0.8287547, z: 0.5596121}
    - {x: 0, y: -0.9212478, z: 0.3889762}
    - {x: 0, y: -0.9798718, z: 0.19962774}
    - {x: 0.55959326, y: -0.8287665, z: 0.0012221753}
    - {x: 0.38894856, y: -0.92125857, z: 0.0013043613}
    - {x: 0.1996068, y: -0.97987515, z: 0.0013345205}
    - {x: 0, y: -0.8287548, z: -0.5596118}
    - {x: 0, y: -0.9212478, z: -0.3889762}
    - {x: 0, y: -0.9801384, z: -0.19831455}
    - {x: -0.55959326, y: -0.8287665, z: 0.0012221732}
    - {x: -0.3889485, y: -0.9212585, z: 0.0013043594}
    - {x: -0.19960651, y: -0.9798752, z: 0.0013345204}
    - {x: -0.55961186, y: 0.8287549, z: 0}
    - {x: -0.388977, y: 0.9212475, z: 0}
    - {x: -0.1996275, y: 0.9798718, z: 0}
    - {x: 0, y: 0.8287548, z: -0.5596118}
    - {x: 0, y: 0.9212476, z: -0.38897675}
    - {x: 0, y: 0.9798719, z: -0.19962744}
    - {x: 0.5596119, y: 0.8287548, z: 0}
    - {x: 0.38897648, y: 0.9212477, z: 0}
    - {x: 0.19962735, y: 0.9798719, z: 0}
    - {x: 0, y: 0.8287548, z: 0.5596118}
    - {x: 0, y: 0.9212476, z: 0.38897675}
    - {x: 0, y: 0.9798719, z: 0.19962743}
    - {x: -0.8287613, y: -0.5596018, z: 0.0008282576}
    - {x: -0.9212518, y: -0.3889665, z: 0.0005541048}
    - {x: -0.9797957, y: -0.20000085, z: 0.0002745861}
    - {x: -0.827427, y: 0.04590931, z: -0.5596935}
    - {x: -0.9197697, y: 0.047819436, z: -0.3895342}
    - {x: -0.978385, y: 0.049844034, z: -0.20069484}
    - {x: -0.82875466, y: 0.5596122, z: 0}
    - {x: -0.9212477, y: 0.3889765, z: 0}
    - {x: -0.97978824, y: 0.2000375, z: 0.000034100114}
    - {x: -0.82743347, y: 0.045773614, z: 0.5596952}
    - {x: -0.91977686, y: 0.047683723, z: 0.389534}
    - {x: -0.97838336, y: 0.049741894, z: 0.20072773}
    - {x: 0, y: -0.55961215, z: -0.82875454}
    - {x: 0, y: -0.38897648, z: -0.9212477}
    - {x: 0, y: -0.20000498, z: -0.97979486}
    - {x: 0.5596935, y: 0.04590956, z: -0.827427}
    - {x: 0.38953403, y: 0.0478196, z: -0.9197698}
    - {x: 0.20072846, y: 0.049878266, z: -0.97837627}
    - {x: 0, y: 0.5596118, z: -0.8287548}
    - {x: 0, y: 0.38897625, z: -0.9212478}
    - {x: 0, y: 0.20013885, z: -0.97976756}
    - {x: -0.5596935, y: 0.045909718, z: -0.827427}
    - {x: -0.38953406, y: 0.047819637, z: -0.9197698}
    - {x: -0.20072848, y: 0.04987822, z: -0.97837627}
    - {x: 0.8287613, y: -0.55960166, z: 0.0008282595}
    - {x: 0.92125195, y: -0.38896608, z: 0.0005541104}
    - {x: 0.9797956, y: -0.20000145, z: 0.0002745824}
    - {x: 0.8274336, y: 0.04577388, z: 0.55969477}
    - {x: 0.91977686, y: 0.047683872, z: 0.38953397}
    - {x: 0.97838336, y: 0.04974211, z: 0.20072797}
    - {x: 0.8287549, y: 0.55961186, z: 0}
    - {x: 0.92124766, y: 0.3889766, z: 0}
    - {x: 0.97978824, y: 0.20003767, z: 0.000034103872}
    - {x: 0.82742727, y: 0.045909584, z: -0.5596932}
    - {x: 0.9197697, y: 0.047819573, z: -0.38953424}
    - {x: 0.978385, y: 0.04984423, z: -0.20069508}
    - {x: 0, y: -0.5596122, z: 0.82875466}
    - {x: 0, y: -0.38897675, z: 0.9212476}
    - {x: 0, y: -0.20000471, z: 0.979795}
    - {x: -0.55969524, y: 0.045774076, z: 0.82743347}
    - {x: -0.3895338, y: 0.047684047, z: 0.919777}
    - {x: -0.20072736, y: 0.04974183, z: 0.9783835}
    - {x: 0, y: 0.55961174, z: 0.8287549}
    - {x: 0, y: 0.38897663, z: 0.9212476}
    - {x: 0, y: 0.20000459, z: 0.979795}
    - {x: 0.5596953, y: 0.0457739, z: 0.8274333}
    - {x: 0.3895338, y: 0.04768401, z: 0.919777}
    - {x: 0.20072736, y: 0.04974188, z: 0.9783835}
    - {x: -0.49635738, y: -0.71222085, z: 0.49635753}
    - {x: -0.34923658, y: -0.774617, z: 0.52725935}
    - {x: -0.18053697, y: -0.81484467, z: 0.550849}
    - {x: -0.52725893, y: -0.77461714, z: 0.34923676}
    - {x: -0.36701542, y: -0.85475105, z: 0.36701536}
    - {x: -0.1887284, y: -0.9043404, z: 0.38281867}
    - {x: -0.55084866, y: -0.8148449, z: 0.18053727}
    - {x: -0.3828184, y: -0.9043404, z: 0.18872847}
    - {x: -0.19646844, y: -0.96062493, z: 0.19646837}
    - {x: 0.49635768, y: -0.71222043, z: 0.49635768}
    - {x: 0.52725977, y: -0.77461666, z: 0.3492366}
    - {x: 0.5508491, y: -0.81484455, z: 0.18053682}
    - {x: 0.34923667, y: -0.7746165, z: 0.52725995}
    - {x: 0.3670155, y: -0.85475105, z: 0.36701536}
    - {x: 0.38281852, y: -0.90434057, z: 0.18872765}
    - {x: 0.18053663, y: -0.8148445, z: 0.5508493}
    - {x: 0.1887278, y: -0.9043405, z: 0.3828186}
    - {x: 0.19646831, y: -0.960625, z: 0.19646801}
    - {x: 0.49635753, y: -0.7122206, z: -0.4963576}
    - {x: 0.34923673, y: -0.7746166, z: -0.5272598}
    - {x: 0.18053666, y: -0.81484455, z: -0.5508491}
    - {x: 0.52725977, y: -0.77461666, z: -0.34923658}
    - {x: 0.36701557, y: -0.85475105, z: -0.36701536}
    - {x: 0.18872783, y: -0.9043405, z: -0.38281864}
    - {x: 0.550954, y: -0.815039, z: -0.17933506}
    - {x: 0.382887, y: -0.9045779, z: -0.18744698}
    - {x: 0.19649953, y: -0.96088535, z: -0.19515961}
    - {x: -0.4963573, y: -0.71222097, z: -0.4963575}
    - {x: -0.52725893, y: -0.77461714, z: -0.34923667}
    - {x: -0.5509536, y: -0.81503916, z: -0.1793355}
    - {x: -0.34923652, y: -0.7746171, z: -0.5272591}
    - {x: -0.36701536, y: -0.85475105, z: -0.36701536}
    - {x: -0.38288698, y: -0.90457773, z: -0.18744782}
    - {x: -0.18053699, y: -0.8148447, z: -0.55084884}
    - {x: -0.18872838, y: -0.9043404, z: -0.3828187}
    - {x: -0.19649963, y: -0.9608852, z: -0.19516002}
    - {x: -0.49635786, y: 0.7122203, z: 0.49635777}
    - {x: -0.52725977, y: 0.7746165, z: 0.34923676}
    - {x: -0.55084914, y: 0.8148448, z: 0.18053599}
    - {x: -0.349237, y: 0.7746164, z: 0.5272598}
    - {x: -0.3670156, y: 0.85475105, z: 0.3670152}
    - {x: -0.38281915, y: 0.9043404, z: 0.18872742}
    - {x: -0.1805361, y: 0.81484467, z: 0.55084926}
    - {x: -0.18872757, y: 0.9043404, z: 0.38281888}
    - {x: -0.19646814, y: 0.9606251, z: 0.19646797}
    - {x: -0.49635777, y: 0.7122203, z: -0.49635786}
    - {x: -0.3492369, y: 0.7746165, z: -0.52725977}
    - {x: -0.18053608, y: 0.81484467, z: -0.55084926}
    - {x: -0.52725977, y: 0.7746165, z: -0.3492368}
    - {x: -0.3670155, y: 0.85475105, z: -0.36701527}
    - {x: -0.18872757, y: 0.9043404, z: -0.382819}
    - {x: -0.55084914, y: 0.8148448, z: -0.18053599}
    - {x: -0.38281906, y: 0.9043404, z: -0.18872744}
    - {x: -0.19646816, y: 0.9606251, z: -0.19646798}
    - {x: 0.4963579, y: 0.7122204, z: -0.4963577}
    - {x: 0.5272598, y: 0.7746166, z: -0.34923673}
    - {x: 0.55084914, y: 0.8148447, z: -0.1805361}
    - {x: 0.34923682, y: 0.7746166, z: -0.5272597}
    - {x: 0.36701518, y: 0.8547512, z: -0.36701518}
    - {x: 0.38281864, y: 0.90434057, z: -0.18872759}
    - {x: 0.18053591, y: 0.8148449, z: -0.5508491}
    - {x: 0.18872747, y: 0.90434057, z: -0.38281867}
    - {x: 0.196468, y: 0.9606251, z: -0.19646814}
    - {x: 0.49635792, y: 0.7122203, z: 0.49635762}
    - {x: 0.34923664, y: 0.7746167, z: 0.52725965}
    - {x: 0.18053587, y: 0.8148449, z: 0.5508491}
    - {x: 0.5272598, y: 0.7746164, z: 0.34923688}
    - {x: 0.3670151, y: 0.8547512, z: 0.36701536}
    - {x: 0.18872745, y: 0.9043405, z: 0.3828189}
    - {x: 0.55084926, y: 0.81484467, z: 0.1805361}
    - {x: 0.38281855, y: 0.90434057, z: 0.18872756}
    - {x: 0.19646798, y: 0.9606251, z: 0.1964681}
    - {x: -0.71222025, y: -0.49635792, z: 0.4963578}
    - {x: -0.77461636, y: -0.52726, z: 0.34923682}
    - {x: -0.8148445, y: -0.5508496, z: 0.18053596}
    - {x: -0.7746165, y: -0.3492368, z: 0.5272598}
    - {x: -0.8547508, y: -0.36701575, z: 0.3670158}
    - {x: -0.90434027, y: -0.3828192, z: 0.18872726}
    - {x: -0.81484455, y: -0.18053578, z: 0.55084956}
    - {x: -0.9043404, y: -0.18872714, z: 0.38281912}
    - {x: -0.96055096, y: -0.19664901, z: 0.19664924}
    - {x: -0.7122203, y: -0.4963579, z: -0.4963578}
    - {x: -0.7746165, y: -0.34923676, z: -0.5272598}
    - {x: -0.81484455, y: -0.18053581, z: -0.5508494}
    - {x: -0.77461636, y: -0.52726, z: -0.34923682}
    - {x: -0.8547508, y: -0.36701575, z: -0.36701575}
    - {x: -0.9043404, y: -0.18872716, z: -0.38281912}
    - {x: -0.81497496, y: -0.5509228, z: -0.17972155}
    - {x: -0.9044408, y: -0.38284957, z: -0.1881833}
    - {x: -0.96060467, y: -0.19665605, z: -0.1963801}
    - {x: -0.71222025, y: 0.496358, z: -0.49635768}
    - {x: -0.77461624, y: 0.5272601, z: -0.3492371}
    - {x: -0.8148445, y: 0.5508495, z: -0.18053627}
    - {x: -0.77461636, y: 0.34923732, z: -0.5272597}
    - {x: -0.8547508, y: 0.36701584, z: -0.36701566}
    - {x: -0.9043404, y: 0.382819, z: -0.18872745}
    - {x: -0.814823, y: 0.18066949, z: -0.5508377}
    - {x: -0.9043157, y: 0.18886083, z: -0.3828117}
    - {x: -0.9605377, y: 0.19674996, z: -0.1966133}
    - {x: -0.71222025, y: 0.4963581, z: 0.49635768}
    - {x: -0.77461636, y: 0.3492372, z: 0.5272597}
    - {x: -0.81484455, y: 0.1805359, z: 0.55084956}
    - {x: -0.77461624, y: 0.52726007, z: 0.3492371}
    - {x: -0.8547508, y: 0.36701572, z: 0.36701572}
    - {x: -0.9043404, y: 0.18872748, z: 0.382819}
    - {x: -0.8148445, y: 0.55084944, z: 0.1805363}
    - {x: -0.9043405, y: 0.38281888, z: 0.18872754}
    - {x: -0.9605509, y: 0.19664924, z: 0.19664933}
    - {x: -0.4963577, y: -0.4963578, z: -0.71222043}
    - {x: -0.3492366, y: -0.52726, z: -0.7746165}
    - {x: -0.18053621, y: -0.5508496, z: -0.8148444}
    - {x: -0.52725977, y: -0.34923673, z: -0.7746165}
    - {x: -0.36701563, y: -0.36701572, z: -0.8547509}
    - {x: -0.18872741, y: -0.38281894, z: -0.9043405}
    - {x: -0.5508494, y: -0.18053645, z: -0.81484455}
    - {x: -0.3828188, y: -0.18872774, z: -0.9043404}
    - {x: -0.19664922, y: -0.19664945, z: -0.9605509}
    - {x: 0.4963577, y: -0.49635747, z: -0.71222067}
    - {x: 0.5272598, y: -0.34923705, z: -0.7746164}
    - {x: 0.5508495, y: -0.18053658, z: -0.8148443}
    - {x: 0.3492372, y: -0.52725995, z: -0.77461624}
    - {x: 0.36701614, y: -0.36701584, z: -0.8547505}
    - {x: 0.382819, y: -0.18872765, z: -0.90434027}
    - {x: 0.18053627, y: -0.5508496, z: -0.8148444}
    - {x: 0.18872745, y: -0.382819, z: -0.9043404}
    - {x: 0.19664939, y: -0.19664933, z: -0.9605509}
    - {x: 0.49635762, y: 0.4963577, z: -0.71222055}
    - {x: 0.3492368, y: 0.52725977, z: -0.7746165}
    - {x: 0.18053634, y: 0.5508493, z: -0.81484455}
    - {x: 0.52725977, y: 0.34923697, z: -0.7746165}
    - {x: 0.3670156, y: 0.36701575, z: -0.8547509}
    - {x: 0.18872741, y: 0.38281876, z: -0.9043405}
    - {x: 0.55083764, y: 0.1806698, z: -0.81482285}
    - {x: 0.38281158, y: 0.18886106, z: -0.9043157}
    - {x: 0.1966459, y: 0.1967829, z: -0.96052426}
    - {x: -0.49635738, y: 0.4963577, z: -0.71222067}
    - {x: -0.52725947, y: 0.3492371, z: -0.77461666}
    - {x: -0.5508375, y: 0.18066987, z: -0.814823}
    - {x: -0.34923697, y: 0.52725977, z: -0.7746165}
    - {x: -0.36701578, y: 0.36701593, z: -0.8547507}
    - {x: -0.38281173, y: 0.18886112, z: -0.90431553}
    - {x: -0.18053661, y: 0.5508492, z: -0.81484455}
    - {x: -0.18872757, y: 0.38281897, z: -0.9043404}
    - {x: -0.196646, y: 0.19678296, z: -0.96052426}
    - {x: 0.7122211, y: -0.49635723, z: -0.49635744}
    - {x: 0.7746168, y: -0.52725965, z: -0.34923655}
    - {x: 0.81497496, y: -0.5509226, z: -0.17972231}
    - {x: 0.77461696, y: -0.3492366, z: -0.52725935}
    - {x: 0.8547508, y: -0.36701566, z: -0.36701575}
    - {x: 0.9044408, y: -0.38284934, z: -0.18818386}
    - {x: 0.8148447, y: -0.18053651, z: -0.550849}
    - {x: 0.9043402, y: -0.18872802, z: -0.38281927}
    - {x: 0.9606044, y: -0.19665675, z: -0.19638026}
    - {x: 0.71222097, y: -0.4963574, z: 0.4963574}
    - {x: 0.77461684, y: -0.34923658, z: 0.5272594}
    - {x: 0.8148447, y: -0.18053648, z: 0.5508491}
    - {x: 0.7746167, y: -0.52725965, z: 0.34923664}
    - {x: 0.8547508, y: -0.36701566, z: 0.36701584}
    - {x: 0.9043402, y: -0.18872799, z: 0.38281927}
    - {x: 0.8148444, y: -0.5508494, z: 0.18053675}
    - {x: 0.90434027, y: -0.38281894, z: 0.18872787}
    - {x: 0.9605508, y: -0.19664973, z: 0.19664945}
    - {x: 0.7122211, y: 0.49635753, z: 0.4963571}
    - {x: 0.7746168, y: 0.52725947, z: 0.34923667}
    - {x: 0.81484467, y: 0.5508491, z: 0.18053666}
    - {x: 0.77461684, y: 0.34923664, z: 0.5272593}
    - {x: 0.8547508, y: 0.36701575, z: 0.36701566}
    - {x: 0.90434027, y: 0.382819, z: 0.1887279}
    - {x: 0.8148447, y: 0.18053617, z: 0.5508491}
    - {x: 0.9043404, y: 0.18872759, z: 0.382819}
    - {x: 0.9605509, y: 0.19664933, z: 0.19664964}
    - {x: 0.71222115, y: 0.4963574, z: -0.49635714}
    - {x: 0.77461684, y: 0.34923676, z: -0.52725923}
    - {x: 0.8148231, y: 0.18066987, z: -0.55083734}
    - {x: 0.77461696, y: 0.52725935, z: -0.34923658}
    - {x: 0.8547509, y: 0.36701575, z: -0.36701554}
    - {x: 0.9043156, y: 0.18886106, z: -0.38281178}
    - {x: 0.8148447, y: 0.550849, z: -0.18053669}
    - {x: 0.9043402, y: 0.3828191, z: -0.18872802}
    - {x: 0.96053755, y: 0.19675006, z: -0.19661362}
    - {x: 0.4963578, y: -0.49635756, z: 0.71222043}
    - {x: 0.34923655, y: -0.5272599, z: 0.7746166}
    - {x: 0.1805361, y: -0.5508495, z: 0.81484455}
    - {x: 0.52725965, y: -0.34923637, z: 0.7746168}
    - {x: 0.36701578, y: -0.36701545, z: 0.8547509}
    - {x: 0.1887276, y: -0.3828191, z: 0.90434027}
    - {x: 0.5508492, y: -0.18053637, z: 0.81484455}
    - {x: 0.38281918, y: -0.18872777, z: 0.90434027}
    - {x: 0.19664936, y: -0.19664933, z: 0.9605509}
    - {x: -0.4963576, y: -0.4963578, z: 0.7122205}
    - {x: -0.52725947, y: -0.34923655, z: 0.7746168}
    - {x: -0.55084914, y: -0.18053629, z: 0.8148447}
    - {x: -0.34923634, y: -0.5272599, z: 0.7746167}
    - {x: -0.3670155, y: -0.3670155, z: 0.85475105}
    - {x: -0.38281894, y: -0.18872787, z: 0.90434027}
    - {x: -0.18053605, y: -0.5508495, z: 0.81484455}
    - {x: -0.18872754, y: -0.38281903, z: 0.9043404}
    - {x: -0.19664924, y: -0.19664945, z: 0.9605509}
    - {x: -0.49635732, y: 0.49635777, z: 0.7122207}
    - {x: -0.34923682, y: 0.5272597, z: 0.7746166}
    - {x: -0.18053637, y: 0.55084914, z: 0.8148447}
    - {x: -0.52725947, y: 0.34923694, z: 0.7746167}
    - {x: -0.36701566, y: 0.36701572, z: 0.8547508}
    - {x: -0.18872756, y: 0.38281906, z: 0.90434027}
    - {x: -0.55084926, y: 0.18053602, z: 0.8148447}
    - {x: -0.38281903, y: 0.18872765, z: 0.9043404}
    - {x: -0.19664927, y: 0.19664922, z: 0.9605509}
    - {x: 0.4963576, y: 0.49635762, z: 0.7122206}
    - {x: 0.5272595, y: 0.34923682, z: 0.7746167}
    - {x: 0.5508494, y: 0.18053597, z: 0.81484467}
    - {x: 0.34923664, y: 0.52725965, z: 0.7746167}
    - {x: 0.36701545, y: 0.36701557, z: 0.854751}
    - {x: 0.38281885, y: 0.1887276, z: 0.9043404}
    - {x: 0.18053623, y: 0.550849, z: 0.8148448}
    - {x: 0.1887276, y: 0.38281903, z: 0.9043404}
    - {x: 0.19664927, y: 0.19664922, z: 0.9605509}
    - {x: -0.99871254, y: -0.050727457, z: 0.00006794848}
    - {x: 0, y: -0.05072817, z: -0.99871254}
    - {x: 0.99871254, y: -0.050728083, z: 0.00006793537}
    - {x: 0, y: -0.050727896, z: 0.99871254}
    - {x: -0.7063924, y: -0.04494783, z: -0.7063919}
    - {x: -0.7063921, y: -0.044947844, z: 0.70639217}
    - {x: 0.70639265, y: -0.044947933, z: -0.7063917}
    - {x: 0.7063923, y: -0.044947952, z: 0.706392}
    - {x: -0.8274336, y: -0.045773845, z: -0.55969495}
    - {x: -0.91977686, y: -0.047683556, z: -0.3895341}
    - {x: -0.9783971, y: -0.049742054, z: -0.20066115}
    - {x: -0.82743347, y: -0.04577384, z: 0.55969507}
    - {x: -0.91977686, y: -0.047683556, z: 0.3895341}
    - {x: -0.97838336, y: -0.049741704, z: 0.20072776}
    - {x: 0.5596951, y: -0.04577413, z: -0.82743347}
    - {x: 0.38953388, y: -0.047684036, z: -0.919777}
    - {x: 0.2007278, y: -0.049742185, z: -0.97838336}
    - {x: -0.55969507, y: -0.04577414, z: -0.82743347}
    - {x: -0.3895338, y: -0.047684036, z: -0.919777}
    - {x: -0.20072776, y: -0.049742196, z: -0.97838336}
    - {x: 0.8274336, y: -0.045774333, z: 0.55969477}
    - {x: 0.9197768, y: -0.04768436, z: 0.38953418}
    - {x: 0.97838336, y: -0.049742438, z: 0.2007279}
    - {x: 0.8274337, y: -0.045774348, z: -0.5596947}
    - {x: 0.9197768, y: -0.04768436, z: -0.3895342}
    - {x: 0.9783971, y: -0.04974281, z: -0.20066132}
    - {x: -0.5596952, y: -0.045774505, z: 0.82743347}
    - {x: -0.3895338, y: -0.047684375, z: 0.919777}
    - {x: -0.2007273, y: -0.049742065, z: 0.9783835}
    - {x: 0.5596952, y: -0.045774475, z: 0.82743335}
    - {x: 0.38953385, y: -0.04768437, z: 0.91977686}
    - {x: 0.20072742, y: -0.04974207, z: 0.9783835}
    - {x: 0, y: -0.9999991, z: 0.0013401482}
    - {x: 0, y: -0.9999991, z: 0.0013401482}
    - {x: 0.7071055, y: -0.7071073, z: 0.0010627954}
    - {x: 0.55959326, y: -0.8287665, z: 0.0012221753}
    - {x: 0.38894856, y: -0.92125857, z: 0.0013043613}
    - {x: 0.1996068, y: -0.97987515, z: 0.0013345205}
    - {x: 0, y: -0.9999991, z: 0.0013401482}
    - {x: 0, y: -0.9999991, z: 0.0013401482}
    - {x: 0, y: -0.9999991, z: 0.0013401482}
    - {x: 0, y: 1, z: 0}
    - {x: 0, y: 1, z: 0}
    - {x: 0, y: 1, z: 0}
    - {x: 0, y: 1, z: 0}
    - {x: 0.7071071, y: 0.7071065, z: 0}
    - {x: 0.5596119, y: 0.8287548, z: 0}
    - {x: 0.38897648, y: 0.9212477, z: 0}
    - {x: 0.19962735, y: 0.9798719, z: 0}
    - {x: 0, y: 1, z: 0}
    - {x: -0.5773504, y: -0.57734996, z: 0.57735044}
    - {x: -0.62011, y: -0.62010986, z: 0.48054913}
    - {x: -0.6646993, y: -0.6646994, z: 0.34110048}
    - {x: -0.69595194, y: -0.69595134, z: 0.17692569}
    - {x: -0.7071056, y: -0.70710725, z: 0.001062799}
    - {x: -0.62011, y: -0.6201099, z: -0.48054907}
    - {x: -0.57735056, y: -0.5773502, z: -0.5773501}
    - {x: -0.6646994, y: -0.66469944, z: -0.3411004}
    - {x: -0.696083, y: -0.6960853, z: -0.17588009}
    - {x: -0.5773503, y: 0.57735026, z: -0.5773502}
    - {x: -0.62011003, y: 0.6201099, z: -0.48054895}
    - {x: -0.6646994, y: 0.6646992, z: -0.3411008}
    - {x: -0.6959515, y: 0.69595176, z: -0.17692553}
    - {x: -0.7071065, y: 0.7071071, z: 0}
    - {x: -0.62011003, y: 0.6201099, z: 0.48054895}
    - {x: -0.5773504, y: 0.57735026, z: 0.5773502}
    - {x: -0.66469926, y: 0.66469926, z: 0.34110078}
    - {x: -0.6959514, y: 0.6959519, z: 0.17692551}
    - {x: -0.57735056, y: -0.5773502, z: -0.5773501}
    - {x: -0.6201099, y: -0.48054916, z: -0.6201098}
    - {x: -0.4805489, y: -0.62011015, z: -0.62010986}
    - {x: -0.34110007, y: -0.6646996, z: -0.6646993}
    - {x: -0.17692581, y: -0.6959516, z: -0.69595164}
    - {x: 0, y: -0.7071066, z: -0.70710695}
    - {x: -0.66469926, y: -0.3411005, z: -0.6646995}
    - {x: -0.69595176, y: -0.17692542, z: -0.6959516}
    - {x: -0.7063924, y: -0.04494783, z: -0.7063919}
    - {x: 0.4805489, y: -0.62010986, z: -0.62011015}
    - {x: 0.57735026, y: -0.5773501, z: -0.57735056}
    - {x: 0.3411006, y: -0.66469944, z: -0.66469926}
    - {x: 0.17692582, y: -0.6959516, z: -0.69595164}
    - {x: 0.5773503, y: 0.5773502, z: -0.57735026}
    - {x: 0.48054898, y: 0.6201099, z: -0.62011003}
    - {x: 0.34110066, y: 0.6646991, z: -0.66469955}
    - {x: 0.17692544, y: 0.69595164, z: -0.69595164}
    - {x: 0, y: 0.7071069, z: -0.70710665}
    - {x: -0.4805488, y: 0.6201099, z: -0.62011015}
    - {x: -0.6201098, y: 0.48054922, z: -0.62011}
    - {x: -0.5773503, y: 0.57735026, z: -0.5773502}
    - {x: -0.664699, y: 0.34110096, z: -0.6646995}
    - {x: -0.69593453, y: 0.17705889, z: -0.6959349}
    - {x: -0.7063879, y: 0.045083165, z: -0.7063878}
    - {x: -0.3411007, y: 0.66469896, z: -0.6646996}
    - {x: -0.17692573, y: 0.6959515, z: -0.69595176}
    - {x: 0.57735026, y: -0.5773501, z: -0.57735056}
    - {x: 0.62011003, y: -0.4805486, z: -0.6201101}
    - {x: 0.62011015, y: -0.62011, z: -0.48054877}
    - {x: 0.66469973, y: -0.6646992, z: -0.34110016}
    - {x: 0.6960831, y: -0.69608504, z: -0.17588046}
    - {x: 0.7071055, y: -0.7071073, z: 0.0010627954}
    - {x: 0.6646995, y: -0.34110063, z: -0.6646992}
    - {x: 0.6959521, y: -0.17692582, z: -0.6959511}
    - {x: 0.70639265, y: -0.044947933, z: -0.7063917}
    - {x: 0.62011015, y: -0.62010986, z: 0.48054892}
    - {x: 0.57735026, y: -0.5773502, z: 0.5773503}
    - {x: 0.6646997, y: -0.66469914, z: 0.34110022}
    - {x: 0.69595206, y: -0.69595104, z: 0.17692612}
    - {x: 0.7071055, y: -0.7071073, z: 0.0010627954}
    - {x: 0.8287613, y: -0.55960166, z: 0.0008282595}
    - {x: 0.92125195, y: -0.38896608, z: 0.0005541104}
    - {x: 0.9797956, y: -0.20000145, z: 0.0002745824}
    - {x: 0.99871254, y: -0.050728083, z: 0.00006793537}
    - {x: 0.5773503, y: 0.5773502, z: 0.5773503}
    - {x: 0.6201104, y: 0.62010974, z: 0.48054862}
    - {x: 0.66470003, y: 0.66469866, z: 0.34110063}
    - {x: 0.6959522, y: 0.6959511, z: 0.17692572}
    - {x: 0.7071071, y: 0.7071065, z: 0}
    - {x: 0.6201104, y: 0.62010974, z: -0.48054862}
    - {x: 0.62011015, y: 0.48054874, z: -0.6201099}
    - {x: 0.5773503, y: 0.5773502, z: -0.57735026}
    - {x: 0.6646997, y: 0.34110048, z: -0.664699}
    - {x: 0.6959351, y: 0.17705902, z: -0.69593424}
    - {x: 0.70638824, y: 0.045083243, z: -0.70638746}
    - {x: 0.6647001, y: 0.6646987, z: -0.34110042}
    - {x: 0.6959522, y: 0.6959511, z: -0.17692572}
    - {x: 0.7071071, y: 0.7071065, z: 0}
    - {x: 0.8287549, y: 0.55961186, z: 0}
    - {x: 0.92124766, y: 0.3889766, z: 0}
    - {x: 0.97978824, y: 0.20003767, z: 0.000034103872}
    - {x: 0.99871075, y: 0.05076212, z: 0.000033990353}
    - {x: 0.57735026, y: -0.5773502, z: 0.5773503}
    - {x: 0.6201101, y: -0.4805489, z: 0.62010986}
    - {x: 0.48054907, y: -0.6201099, z: 0.6201099}
    - {x: 0.34110025, y: -0.6646994, z: 0.66469944}
    - {x: 0.17692563, y: -0.6959513, z: 0.695952}
    - {x: 0, y: -0.7071061, z: 0.7071074}
    - {x: 0.6646996, y: -0.34110045, z: 0.6646992}
    - {x: 0.69595176, y: -0.17692557, z: 0.69595146}
    - {x: 0.7063923, y: -0.044947952, z: 0.706392}
    - {x: -0.48054898, y: -0.6201098, z: 0.62011015}
    - {x: -0.6201097, y: -0.48054925, z: 0.62011}
    - {x: -0.5773504, y: -0.57734996, z: 0.57735044}
    - {x: -0.6646991, y: -0.34110048, z: 0.6646997}
    - {x: -0.6959514, y: -0.1769252, z: 0.69595194}
    - {x: -0.7063921, y: -0.044947844, z: 0.70639217}
    - {x: -0.34110007, y: -0.6646994, z: 0.6646996}
    - {x: -0.17692557, y: -0.6959512, z: 0.695952}
    - {x: -0.5773504, y: 0.57735026, z: 0.5773502}
    - {x: -0.6201097, y: 0.48054928, z: 0.62011003}
    - {x: -0.48054892, y: 0.62010974, z: 0.62011015}
    - {x: -0.34110075, y: 0.6646989, z: 0.66469973}
    - {x: -0.17692564, y: 0.69595134, z: 0.6959519}
    - {x: 0, y: 0.70710665, z: 0.7071069}
    - {x: -0.66469896, y: 0.34110078, z: 0.66469955}
    - {x: -0.6959513, y: 0.17692496, z: 0.6959521}
    - {x: -0.70639193, y: 0.04494741, z: 0.7063924}
    - {x: 0.48054907, y: 0.6201098, z: 0.62011003}
    - {x: 0.6201101, y: 0.48054886, z: 0.62011}
    - {x: 0.5773503, y: 0.5773502, z: 0.5773503}
    - {x: 0.6646997, y: 0.34110036, z: 0.6646991}
    - {x: 0.695952, y: 0.17692511, z: 0.6959514}
    - {x: 0.7063923, y: 0.04494747, z: 0.706392}
    - {x: 0.34110048, y: 0.6646991, z: 0.6646996}
    - {x: 0.17692533, y: 0.69595146, z: 0.6959518}
--- !u!1 &5575603142241287262
GameObject:
  m_ObjectHideFlags: 0
  m_CorrespondingSourceObject: {fileID: 0}
  m_PrefabInstance: {fileID: 0}
  m_PrefabAsset: {fileID: 0}
  serializedVersion: 6
  m_Component:
  - component: {fileID: 5575603142241287249}
  - component: {fileID: 5575603142241287248}
  m_Layer: 0
  m_Name: StaffLight
  m_TagString: Untagged
  m_Icon: {fileID: 0}
  m_NavMeshLayer: 0
  m_StaticEditorFlags: 0
  m_IsActive: 1
--- !u!4 &5575603142241287249
Transform:
  m_ObjectHideFlags: 0
  m_CorrespondingSourceObject: {fileID: 0}
  m_PrefabInstance: {fileID: 0}
  m_PrefabAsset: {fileID: 0}
  m_GameObject: {fileID: 5575603142241287262}
  m_LocalRotation: {x: 0, y: 0, z: 0, w: 1}
  m_LocalPosition: {x: 0, y: 0, z: 0}
  m_LocalScale: {x: 1, y: 1, z: 1}
  m_Children: []
  m_Father: {fileID: 2488808550493624176}
  m_RootOrder: 0
  m_LocalEulerAnglesHint: {x: 0, y: 0, z: 0}
--- !u!108 &5575603142241287248
Light:
  m_ObjectHideFlags: 0
  m_CorrespondingSourceObject: {fileID: 0}
  m_PrefabInstance: {fileID: 0}
  m_PrefabAsset: {fileID: 0}
  m_GameObject: {fileID: 5575603142241287262}
  m_Enabled: 1
  serializedVersion: 10
  m_Type: 2
  m_Shape: 0
  m_Color: {r: 1, g: 0.95686275, b: 0.8392157, a: 1}
  m_Intensity: 0.1
  m_Range: 11.17
  m_SpotAngle: 30
  m_InnerSpotAngle: 21.80208
  m_CookieSize: 10
  m_Shadows:
    m_Type: 2
    m_Resolution: -1
    m_CustomResolution: -1
    m_Strength: 1
    m_Bias: 0.02
    m_NormalBias: 0.1
    m_NearPlane: 0.1
    m_CullingMatrixOverride:
      e00: 1
      e01: 0
      e02: 0
      e03: 0
      e10: 0
      e11: 1
      e12: 0
      e13: 0
      e20: 0
      e21: 0
      e22: 1
      e23: 0
      e30: 0
      e31: 0
      e32: 0
      e33: 1
    m_UseCullingMatrixOverride: 0
  m_Cookie: {fileID: 0}
  m_DrawHalo: 0
  m_Flare: {fileID: 0}
  m_RenderMode: 0
  m_CullingMask:
    serializedVersion: 2
    m_Bits: 4294967295
  m_RenderingLayerMask: 1
  m_Lightmapping: 4
  m_LightShadowCasterMode: 0
  m_AreaSize: {x: 1, y: 1}
  m_BounceIntensity: 1
  m_ColorTemperature: 6570
  m_UseColorTemperature: 0
  m_BoundingSphereOverride: {x: 0, y: 0, z: 0, w: 0}
  m_UseBoundingSphereOverride: 0
  m_UseViewFrustumForShadowCasterCull: 1
  m_ShadowRadius: 0
  m_ShadowAngle: 0
